module gitlab.com/flattrack/flattrack

go 1.14

require (
	github.com/NYTimes/gziphandler v1.1.1
	github.com/golang-jwt/jwt v3.2.1+incompatible
	github.com/golang-migrate/migrate/v4 v4.14.2-0.20210728160618-5bf05dc3236e
	github.com/gorilla/mux v1.8.0
	github.com/hashicorp/errwrap v1.1.0 // indirect
	github.com/hashicorp/go-multierror v1.1.1 // indirect
	github.com/imdario/mergo v0.3.12
	github.com/joho/godotenv v1.3.0
	github.com/lib/pq v1.10.2
	github.com/onsi/ginkgo v1.16.4
	github.com/onsi/gomega v1.14.0
	github.com/prometheus/client_golang v1.11.0
	github.com/prometheus/common v0.30.0 // indirect
	github.com/prometheus/procfs v0.7.1 // indirect
	github.com/rs/cors v1.8.0
	go.uber.org/atomic v1.9.0 // indirect
	golang.org/x/net v0.0.0-20210726213435-c6fcb2dbf985 // indirect
	golang.org/x/sys v0.0.0-20210630005230-0f9fa26af87c // indirect
	google.golang.org/protobuf v1.27.1 // indirect
)
